^D:\UNI\ADVANCED SOFTWARE TECHNIQUES AST\PROJECT\BILDVERARBEITUNG\X64\DEBUG\FILTERING.OBJ|D:\UNI\ADVANCED SOFTWARE TECHNIQUES AST\PROJECT\BILDVERARBEITUNG\X64\DEBUG\GRADIENT_CALCULATION.OBJ|D:\UNI\ADVANCED SOFTWARE TECHNIQUES AST\PROJECT\BILDVERARBEITUNG\X64\DEBUG\MAIN.OBJ|D:\UNI\ADVANCED SOFTWARE TECHNIQUES AST\PROJECT\BILDVERARBEITUNG\X64\DEBUG\SERVICE.OBJ
C:\OPENCV\BUILD\X64\VC15\LIB\OPENCV_WORLD454D.LIB
C:\OPENCV\BUILD\X64\VC15\LIB\OPENCV_WORLD454.LIB
C:\PROGRAM FILES (X86)\WINDOWS KITS\10\LIB\10.0.22000.0\UM\X64\KERNEL32.LIB
C:\PROGRAM FILES (X86)\WINDOWS KITS\10\LIB\10.0.22000.0\UM\X64\USER32.LIB
C:\PROGRAM FILES (X86)\WINDOWS KITS\10\LIB\10.0.22000.0\UM\X64\GDI32.LIB
C:\PROGRAM FILES (X86)\WINDOWS KITS\10\LIB\10.0.22000.0\UM\X64\WINSPOOL.LIB
C:\PROGRAM FILES (X86)\WINDOWS KITS\10\LIB\10.0.22000.0\UM\X64\COMDLG32.LIB
C:\PROGRAM FILES (X86)\WINDOWS KITS\10\LIB\10.0.22000.0\UM\X64\ADVAPI32.LIB
C:\PROGRAM FILES (X86)\WINDOWS KITS\10\LIB\10.0.22000.0\UM\X64\SHELL32.LIB
C:\PROGRAM FILES (X86)\WINDOWS KITS\10\LIB\10.0.22000.0\UM\X64\OLE32.LIB
C:\PROGRAM FILES (X86)\WINDOWS KITS\10\LIB\10.0.22000.0\UM\X64\OLEAUT32.LIB
C:\PROGRAM FILES (X86)\WINDOWS KITS\10\LIB\10.0.22000.0\UM\X64\UUID.LIB
C:\PROGRAM FILES (X86)\WINDOWS KITS\10\LIB\10.0.22000.0\UM\X64\ODBC32.LIB
C:\PROGRAM FILES (X86)\WINDOWS KITS\10\LIB\10.0.22000.0\UM\X64\ODBCCP32.LIB
D:\UNI\ADVANCED SOFTWARE TECHNIQUES AST\PROJECT\BILDVERARBEITUNG\X64\DEBUG\FILTERING.OBJ
D:\UNI\ADVANCED SOFTWARE TECHNIQUES AST\PROJECT\BILDVERARBEITUNG\X64\DEBUG\GRADIENT_CALCULATION.OBJ
D:\UNI\ADVANCED SOFTWARE TECHNIQUES AST\PROJECT\BILDVERARBEITUNG\X64\DEBUG\MAIN.OBJ
D:\UNI\ADVANCED SOFTWARE TECHNIQUES AST\PROJECT\BILDVERARBEITUNG\X64\DEBUG\SERVICE.OBJ
C:\WINDOWS\GLOBALIZATION\SORTING\SORTDEFAULT.NLS
C:\PROGRAM FILES (X86)\MICROSOFT VISUAL STUDIO\2019\COMMUNITY\VC\TOOLS\MSVC\14.29.30133\LIB\X64\LIBCPMTD.LIB
C:\PROGRAM FILES (X86)\MICROSOFT VISUAL STUDIO\2019\COMMUNITY\VC\TOOLS\MSVC\14.29.30133\LIB\X64\LIBCMTD.LIB
C:\PROGRAM FILES (X86)\MICROSOFT VISUAL STUDIO\2019\COMMUNITY\VC\TOOLS\MSVC\14.29.30133\LIB\X64\OLDNAMES.LIB
C:\PROGRAM FILES (X86)\MICROSOFT VISUAL STUDIO\2019\COMMUNITY\VC\TOOLS\MSVC\14.29.30133\LIB\X64\LIBVCRUNTIMED.LIB
C:\PROGRAM FILES (X86)\WINDOWS KITS\10\LIB\10.0.22000.0\UCRT\X64\LIBUCRTD.LIB
C:\PROGRAM FILES (X86)\MICROSOFT VISUAL STUDIO\2019\COMMUNITY\VC\TOOLS\MSVC\14.29.30133\BIN\HOSTX86\X64\CVTRES.EXE
C:\PROGRAM FILES (X86)\MICROSOFT VISUAL STUDIO\2019\COMMUNITY\VC\TOOLS\MSVC\14.29.30133\BIN\HOSTX86\X64\MSPDBSRV.EXE
C:\WINDOWS\SYSTEM32\TZRES.DLL
